…
```r
library(checkin)
library(dplyr)
#> 
#> Attaching package: 'dplyr'
#> The following objects are masked from 'package:stats':
#> 
#>     filter, lag
#> The following objects are masked from 'package:base':
#> 
#>     intersect, setdiff, setequal, union
data(checkins)
checkins
#> # A tibble: 14,609 × 3
#>       id timestamp           location
#>    <int> <dttm>                 <int>
#>  1   442 2020-04-19 17:23:44    36496
#>  2   442 2020-04-19 17:23:35    36496
#>  3   166 2020-04-19 12:55:44    37461
#>  4   476 2020-04-19 06:23:47    33476
#>  5   456 2020-04-19 05:39:09    33468
#>  6   458 2020-04-19 10:04:20    36500
#>  7   458 2020-04-19 15:15:25    36876
#>  8   651 2020-04-19 13:31:19    37391
#>  9   652 2020-04-19 05:27:54    37469
#> 10   653 2020-04-19 05:28:59    37389
#> # … with 14,599 more rows
#> # ℹ Use `print(n = ...)` to see more rows

checkins |>
  group_by(id) |>
  summarize(total_ids = n())
#> # A tibble: 1,000 × 2
#>       id total_ids
#>    <int>     <int>
#>  1     1         1
#>  2     2         2
#>  3     3         1
#>  4     4         5
#>  5     5         1
#>  6     6         3
#>  7     7         1
#>  8     8         1
#>  9     9         2
#> 10    10         2
#> # … with 990 more rows
#> # ℹ Use `print(n = ...)` to see more rows
```
…
 checkins |>
   group_by(id) |>
   map_hourly_interval_dfr(from_to, time = "timestamp") 
#> # A tibble: 319,867 × 5
#>    id     from    to timestamp           from_duration
#>    <chr> <int> <int> <dttm>                      <dbl>
#>  1 1     33175 33175 2020-04-22 05:00:00          3599
#>  2 2     36523 36523 2020-04-20 01:00:00          3599
#>  3 2     36523 36523 2020-04-20 02:00:00          3599
#>  4 2     36523 36523 2020-04-20 03:00:00          3599
#>  5 2     36523 36523 2020-04-20 04:00:00          3599
#>  6 2     36523 36523 2020-04-20 05:00:00          3599
#>  7 2     36523 36523 2020-04-20 06:00:00          3599
#>  8 2     36523 36523 2020-04-20 07:00:00          3599
#>  9 2     36523 36523 2020-04-20 08:00:00          3599
#> 10 2     36523 36523 2020-04-20 09:00:00          3599
#> # … with 319,857 more rows
#> # ℹ Use `print(n = ...)` to see more rows
```
…
