# Hourly mapping works.

    Code
      y
    Output
      # A tibble: 156 x 5
         id     from    to timestamp           from_duration
         <chr> <int> <int> <dttm>                      <dbl>
       1 34    16775 16775 2020-04-19 08:00:00          3599
       2 34    16775 16775 2020-04-19 09:00:00          3599
       3 34    16775 16775 2020-04-19 10:00:00          3599
       4 34    16775 16918 2020-04-19 11:00:00          1335
       5 34    16918 16918 2020-04-19 12:00:00          3599
       6 34    16918 16918 2020-04-19 13:00:00          3599
       7 34    16918 16918 2020-04-19 14:00:00          3599
       8 34    16918 15078 2020-04-19 15:00:00          1533
       9 34    15078 15078 2020-04-19 16:00:00          3599
      10 34    15078 15078 2020-04-19 17:00:00          3599
      # ... with 146 more rows
      # i Use `print(n = ...)` to see more rows

---

    Code
      z
    Output
      # A tibble: 154 x 4
      # Groups:   from, to [53]
          from    to timestamp               n
         <int> <int> <dttm>              <int>
       1 15078 15078 2020-04-19 16:00:00     1
       2 15078 15078 2020-04-19 17:00:00     1
       3 15078 15078 2020-04-19 18:00:00     1
       4 15078 15078 2020-04-19 19:00:00     1
       5 15078 16844 2020-04-19 20:00:00     1
       6 15497 15497 2020-04-19 20:00:00     1
       7 15497 36858 2020-04-19 21:00:00     1
       8 15637 15637 2020-04-19 06:00:00     1
       9 15637 15637 2020-04-19 07:00:00     1
      10 15637 15722 2020-04-19 08:00:00     1
      # ... with 144 more rows
      # i Use `print(n = ...)` to see more rows

---

    Code
      x %>% map_hourly_interval_dfr(from_to, time = "timestamp")
    Output
      # A tibble: 22 x 4
          from    to timestamp           from_duration
         <int> <int> <dttm>                      <dbl>
       1 32576 36902 2020-04-19 01:00:00          2402
       2 36902 32576 2020-04-19 02:00:00           122
       3 32576 33658 2020-04-19 03:00:00            84
       4 33658 33658 2020-04-19 04:00:00          3599
       5 33658 15637 2020-04-19 05:00:00           358
       6 15637 16277 2020-04-19 06:00:00           849
       7 16277 33660 2020-04-19 07:00:00          1090
       8 33660 33467 2020-04-19 08:00:00          1707
       9 33467 36524 2020-04-19 09:00:00          3154
      10 36524 33329 2020-04-19 10:00:00          2430
      # ... with 12 more rows
      # i Use `print(n = ...)` to see more rows
…
---

    Code
      x %>% group_by(id) %>% map_interval_dfr(.gen = hour_checkin_gen, from_to, time = "timestamp")
    Output
      # A tibble: 156 x 5
         id     from    to timestamp           from_duration
         <chr> <int> <int> <dttm>                      <dbl>
       1 34    16775 16775 2020-04-19 08:00:00          3599
       2 34    16775 16775 2020-04-19 09:00:00          3599
       3 34    16775 16775 2020-04-19 10:00:00          3599
       4 34    16775 16918 2020-04-19 11:00:00          1335
       5 34    16918 16918 2020-04-19 12:00:00          3599
       6 34    16918 16918 2020-04-19 13:00:00          3599
       7 34    16918 16918 2020-04-19 14:00:00          3599
       8 34    16918 15078 2020-04-19 15:00:00          1533
       9 34    15078 15078 2020-04-19 16:00:00          3599
      10 34    15078 15078 2020-04-19 17:00:00          3599
      # ... with 146 more rows
      # i Use `print(n = ...)` to see more rows
…
