…
    ## 
    ## Attaching package: 'dplyr'

    ## The following objects are masked from 'package:stats':
    ## 
    ##     filter, lag

    ## The following objects are masked from 'package:base':
    ## 
    ##     intersect, setdiff, setequal, union

    data(checkins)
    checkins

    ## # A tibble: 14,609 × 3
    ##       id timestamp           location
    ##    <int> <dttm>                 <int>
    ##  1   442 2020-04-19 17:23:44    36496
    ##  2   442 2020-04-19 17:23:35    36496
    ##  3   166 2020-04-19 12:55:44    37461
    ##  4   476 2020-04-19 06:23:47    33476
    ##  5   456 2020-04-19 05:39:09    33468
    ##  6   458 2020-04-19 10:04:20    36500
    ##  7   458 2020-04-19 15:15:25    36876
    ##  8   651 2020-04-19 13:31:19    37391
    ##  9   652 2020-04-19 05:27:54    37469
    ## 10   653 2020-04-19 05:28:59    37389
    ## # … with 14,599 more rows
    ## # ℹ Use `print(n = ...)` to see more rows
…
     checkins |>
       head(100) |>
       group_by(id) |>
       map_hourly_interval_dfr(from_to, time = "timestamp") 

    ## # A tibble: 119 × 5
    ##    id     from    to timestamp           from_duration
    ##    <chr> <int> <int> <dttm>                      <dbl>
    ##  1 166   37461 37461 2020-04-19 13:00:00          3599
    ##  2 286   33165 33165 2020-04-19 18:00:00          3599
    ##  3 313   33149 33149 2020-04-19 19:00:00          3599
    ##  4 381   33359 33359 2020-04-19 16:00:00          3599
    ##  5 381   33359 33359 2020-04-19 17:00:00          3599
    ##  6 442   36496 36496 2020-04-19 18:00:00          3599
    ##  7 456   33468 33468 2020-04-19 06:00:00          3599
    ##  8 457   33130 33130 2020-04-19 13:00:00          3599
    ##  9 457   33130 33130 2020-04-19 14:00:00          3599
    ## 10 457   33130 33130 2020-04-19 15:00:00          3599
    ## # … with 109 more rows
    ## # ℹ Use `print(n = ...)` to see more rows
…
